SOTU
…
Load Data

# load data
sou <- read_csv("data/sou.csv")
presidents <- read_csv("data/presidents.csv")

sou <- sou %>%
  left_join(presidents)

Sentiment analysis

sou %>%
  unnest_tokens(word, text)

## # A tibble: 1,867,935 x 6
##    link                president    message       date       party word   
##    <chr>               <chr>        <chr>         <date>     <chr> <chr>  
##  1 http://www.preside George Wash First Annual 1790-01-08 None  fellow 
##  2 http://www.preside George Wash First Annual 1790-01-08 None  citize
##  3 http://www.preside George Wash First Annual 1790-01-08 None  of     
##  4 http://www.preside George Wash First Annual 1790-01-08 None  the    
##  5 http://www.preside George Wash First Annual 1790-01-08 None  senate 
##  6 http://www.preside George Wash First Annual 1790-01-08 None  and    
##  7 http://www.preside George Wash First Annual 1790-01-08 None  house  
##  8 http://www.preside George Wash First Annual 1790-01-08 None  of     
##  9 http://www.preside George Wash First Annual 1790-01-08 None  repres
## 10 http://www.preside George Wash First Annual 1790-01-08 None  i      
## # ... with 1,867,925 more rows
…
